hpp: Hollie
…
outcome label
unique identifier for study
unique identifier for arm
mean, sd, counts, etc.
timepoint, scale, etc.
condition, study design (parallel/crossover), antyhing we need to filter by, subgroups, etc.

# inspect the data at a point in the pipeline with 

# this is the output table described as the desired output at the top
# of the pipeline (copied in above)
tar_read(w_obs)

# A tibble: 169 x 43
   outcome study  arm    covidence   timepoint scale  model_type  mean
   <chr>   <glue> <chr>  <chr>       <chr>     <chr>  <chr>      <dbl>
 1 mood    graff amitr anxiety_st post_int  state smd        65.8 
 2 mood    graff amitr anxiety_st post_int  state smd        84.7 
 3 mood    graff amitr depression post_int  beck_ smd        11.1 
 4 mood    vollm place qo_l_menta post_int  menta smd         4.6 
 5 mood    vollm dulox qo_l_menta post_int  menta smd         5.8 
 6 mood    pakfe cital anxiety_ha post_int  hamil smd        18.6 
 7 mood    pakfe cital depression post_int  hamil smd        19.4 
 8 mood    werni dulox mental_com post_int  sf_36 smd         0.77
 9 mood    werni dulox depression post_int  hamil smd         0.19
10 mood    werni dulox mental_com post_int  sf_36 smd         1.09
#  with 159 more rows, and 35 more variables: r <int>, n <int>,
#   sd <dbl>, range <chr>, se <dbl>, median <dbl>, ci <chr>,
#   iqr <chr>, percent <dbl>, intervention <chr>, type <chr>,
#   class <chr>, chronic_condition <chr>, main_aim <chr>,
#   design <chr>, sponsorship_source <chr>, authors_name <chr>,
#   duration_weeks <chr>, pain_duration <chr>,
#   inclusion_criteria <chr>, exclusion_criteria <chr>,
#   total_number_of_participants_randomised <chr>,
#   number_in_each_arm_comparators_treatments <chr>,
…
\

|

/

-

\

tar_read(w_obs_scale_counts)

# A tibble: 3,358 x 9
   outcome study  arm    covidence_value measure_type covidence_desc  
   <chr>   <glue> <chr>  <chr>           <chr>        <chr>           
 1 mood    rinta gabap 7.2             mean         depression_cent
 2 mood    rinta gabap 22              n            depression_cent
 3 mood    rinta gabap 6.2             sd           depression_cent
 4 mood    rinta amitr 7.2             mean         depression_cent
 5 mood    rinta amitr 22              n            depression_cent
 6 mood    rinta amitr 6.2             sd           depression_cent
 7 mood    rinta diphe 7.2             mean         depression_cent
 8 mood    rinta diphe 22              n            depression_cent
 9 mood    rinta diphe 6.2             sd           depression_cent
10 mood    graff amitr 80.3            mean         anxiety_state_t
#  with 3,348 more rows, and 3 more variables: model_type <chr>,
#   scale_match <list>, cat_n <int>
…
investigate unmatched scales

# look at the first 0 matches
tar_read(w_obs_scale_counts) %>% 
  filter(cat_n == 0,
         # fix in Covidence bansal 2009 add in 0-4 
         study != "bansal 2009",
         # change kayiran vas 0-10 
         study != "kayiran 2010",
         # change extractions
         !str_detect(covidence_desc, "catastrophising") 
         )

# A tibble: 113 x 9
   outcome  study arm   covidence_value measure_type covidence_desc   
   <chr>    <glu> <chr> <chr>           <chr>        <chr>            
 1 physical kals plac 12              n            daily_activities
 2 physical kals plac 2               median       daily_activities
 3 physical kals plac 3               range        daily_activities
 4 physical kals plac 0               range        daily_activities
 5 physical kals plac 10              n            daily_activities
 6 physical kals plac 1.4             median       daily_activities
 7 physical kals plac 4               range        daily_activities
 8 physical kals plac 0               range        daily_activities
 9 physical kals plac 13              n            daily_activities
10 physical kals plac 3               median       daily_activities
#  with 103 more rows, and 3 more variables: model_type <chr>,
#   scale_match <list>, cat_n <int>
…
