hpp: data cleaning pipeline
…
tar_read(r_covidence) %>% 
  janitor::clean_names() %>% 
  select(study_identifier, comments) %>% 
  distinct() %>% 
  nrow()

[1] 177

metaparameters

Metaparameters for each study were drawn from the raw covidence export. These comprise the study and intervention data, such as class, type of trial, etc.

tar_read(metapar)

# A tibble: 459 x 11
   title   study  arm    type   class name   main_aim design condition
   <chr>   <glue> <chr>  <chr>  <chr> <chr>  <chr>    <chr>  <chr>    
 1 compar caret place place <NA>  place pain an paral fibromya
 2 compar caret amitr antid tca   amitr pain an paral fibromya
 3 compar caret cyclo skele <NA>  <NA>   pain an paral fibromya
 4 trimip macfa place place <NA>  place pain an paral rheumato
 5 trimip macfa place place <NA>  place pain an paral rheumato
 6 trimip macfa trimi antid tca   trimi pain an paral rheumato
 7 trimip macfa trimi antid tca   trimi pain an paral rheumato
 8 compar keski gabap antic <NA>  gabap pain     paral neuropat
 9 compar keski amitr antid tca   amitr pain     paral neuropat
10 compar nct 2 benzt activ <NA>  benzt pain     paral temporom
#  with 449 more rows, and 2 more variables: general_grouping <chr>,
#   iasp_classification <chr>

outcome data

tar_read(r_obs) %>% map(select, 1:5)

$adverse
# A tibble: 451 x 5
   `Study Identifie Comments          Intervention   `Intervention N
   <chr>             <chr>             <chr>          <chr>           
 1 Lee 2010          Title: Efficacy  Placebo        <NA>            
 2 Lee 2010          Title: Efficacy  Venlafaxine - Venlafaxine     
 3 dsrhv 2018        Title: Comparati Control        Control         
 4 dsrhv 2018        Title: Comparati Amitriptyline Amitriptyline   
 5 dsrhv 2018        Title: Comparati Amitriptyline Amitriptyline +
 6 dsrhv 2018        Title: Comparati Acupuncture    Acupuncture     
 7 Keskinbora 2006   Title: Compariso Gabapentin 90 Gabapentin      
 8 Keskinbora 2006   Title: Compariso Amitriptyline Amitriptyline   
 9 Cannon 1994       Title: Imipramin Placebo        Placebo         
10 Cannon 1994       Title: Imipramin Clonidine      Clonidine       
#  with 441 more rows, and 1 more variable: Intervention Type <chr>

$pain
# A tibble: 451 x 5
   `Study Identifie Intervention    Comments         `Intervention N
   <chr>             <chr>           <chr>            <chr>           
 1 Lee 2010          Placebo         Title: Efficacy <NA>            
 2 Lee 2010          Venlafaxine -  Title: Efficacy Venlafaxine     
 3 dsrhv 2018        Control         Title: Comparat Control         
 4 dsrhv 2018        Amitriptyline  Title: Comparat Amitriptyline   
 5 dsrhv 2018        Amitriptyline  Title: Comparat Amitriptyline +
 6 dsrhv 2018        Acupuncture     Title: Comparat Acupuncture     
 7 Keskinbora 2006   Gabapentin 900 Title: Comparis Gabapentin      
 8 Keskinbora 2006   Amitriptyline  Title: Comparis Amitriptyline   
 9 Cannon 1994       Placebo         Title: Imiprami Placebo         
10 Cannon 1994       Clonidine       Title: Imiprami Clonidine       
#  with 441 more rows, and 1 more variable: Intervention Type <chr>

$mood_depression
# A tibble: 451 x 5
   `Study Identifie Intervention    Comments         `Intervention N
   <chr>             <chr>           <chr>            <chr>           
 1 Lee 2010          Placebo         Title: Efficacy <NA>            
 2 Lee 2010          Venlafaxine -  Title: Efficacy Venlafaxine     
 3 dsrhv 2018        Control         Title: Comparat Control         
 4 dsrhv 2018        Amitriptyline  Title: Comparat Amitriptyline   
 5 dsrhv 2018        Amitriptyline  Title: Comparat Amitriptyline +
 6 dsrhv 2018        Acupuncture     Title: Comparat Acupuncture     
 7 Keskinbora 2006   Gabapentin 900 Title: Comparis Gabapentin      
 8 Keskinbora 2006   Amitriptyline  Title: Comparis Amitriptyline   
 9 Cannon 1994       Placebo         Title: Imiprami Placebo         
10 Cannon 1994       Clonidine       Title: Imiprami Clonidine       
#  with 441 more rows, and 1 more variable: Intervention Type <chr>
…
