hpp: wrangling
…
tar_visnetwork(allow = c(
  starts_with("r_h_"),
  contains("covidence"),
  starts_with("w_study_"),
  contains("outcome")
))

Loading required package: dontpanic

We now have two datasets each with study and arm, so we can join them together later.

# table of study/arm level information
tar_read(w_study_label_study_arm_par)

# A tibble: 451 x 25
   study  arm    intervention   type   class condition main_aim design
   <glue> <chr>  <chr>          <chr>  <chr> <chr>     <chr>    <chr> 
 1 Arnol Place <NA>           Place <NA>  Fibromya Pain     Paral
 2 Arnol Esreb Esreboxetine   Antid SNRI  Fibromya Pain     Paral
 3 Gonza Physi Physiotherapy Ultra <NA>  Fibromya Pain     Paral
 4 Gonza Sertr Sertraline     Antid SSRI  Fibromya Pain     Paral
 5 Hammo Prega Pregabalin     Antic <NA>  Fibromya Pain     Paral
 6 Hammo Amitr Amitriptyline  Antid TCA   Fibromya Pain     Paral
 7 Carde Benzo Benztropine m Activ <NA>  Spinal c Pain     Paral
 8 Carde Amitr Amitriptyline  Antid TCA   Spinal c Pain     Paral
 9 Gould Benzo Benztropine m Activ <NA>  Chronic  Pain     Paral
10 Gould Desip Desipramine h Antid TCA   Chronic  Pain     Paral
#  with 441 more rows, and 17 more variables:
#   sponsorship_source <chr>, authors_name <chr>,
#   duration_weeks <chr>, pain_duration <chr>,
#   inclusion_criteria <chr>, exclusion_criteria <chr>,
#   total_number_of_participants_randomised <chr>,
#   number_in_each_arm_comparators_treatments <chr>,
#   number_in_each_arm_intervention_comparators <chr>,
#   type_of_participant_e_g_people_with_cancer <chr>,
#   type_of_participant_e_g_people_with_cancer_2 <chr>,
#   intervention_adverse_events <chr>,
#   intervention_adverse_events_n_percent <chr>,
#   withdrawal_total_per_arm_n_percent <chr>,
#   withdrawal_total_percent <dbl>, withdrawal_total_n <dbl>,
#   title <chr>

# list of outcome tables with observations extracted by Hollie
tar_read(w_study_label_obs) %>% 
  # select first 10 columns bc space
  map(select, c(1:10))

[[1]]
# A tibble: 451 x 10
   outcome   study   arm      anxiety_1_item_pati anxiety_1_item_pat
   <chr>     <glue>  <chr>    <lgl>                <lgl>              
 1 mood_dep Lee 20 Placebo  NA                   NA                 
 2 mood_dep Lee 20 Venlafa NA                   NA                 
 3 mood_dep dsrhv  Control  NA                   NA                 
 4 mood_dep dsrhv  Amitrip NA                   NA                 
 5 mood_dep dsrhv  Amitrip NA                   NA                 
 6 mood_dep dsrhv  Acupunc NA                   NA                 
 7 mood_dep Keskin Gabapen NA                   NA                 
 8 mood_dep Keskin Amitrip NA                   NA                 
 9 mood_dep Cannon Placebo  NA                   NA                 
10 mood_dep Cannon Clonidi NA                   NA                 
#  with 441 more rows, and 5 more variables:
#   anxiety_1_item_patient_rated_ni_baseline_se <lgl>,
#   anxiety_4_point_nrs_from_0_no_anxiety_to_3_severe_anxiety_baseline_mean <dbl>,
#   anxiety_4_point_nrs_from_0_no_anxiety_to_3_severe_anxiety_baseline_n <dbl>,
#   anxiety_4_point_nrs_from_0_no_anxiety_to_3_severe_anxiety_baseline_sd <dbl>,
#   anxiety_4_point_nrs_from_0_no_anxiety_to_3_severe_anxiety_mid_intervention_week_3_mean <dbl>

[[2]]
# A tibble: 451 x 10
   outcome study   arm     american_college_of_ american_college_of_
   <chr>   <glue>  <chr>                   <dbl>                 <dbl>
 1 pain    Lee 20 Placebo                    NA                    NA
 2 pain    Lee 20 Venlaf                    NA                    NA
 3 pain    dsrhv  Control                    NA                    NA
 4 pain    dsrhv  Amitri                    NA                    NA
 5 pain    dsrhv  Amitri                    NA                    NA
 6 pain    dsrhv  Acupun                    NA                    NA
 7 pain    Keskin Gabape                    NA                    NA
 8 pain    Keskin Amitri                    NA                    NA
 9 pain    Cannon Placebo                    NA                    NA
10 pain    Cannon Clonid                    NA                    NA
#  with 441 more rows, and 5 more variables:
#   american_college_of_rheumatology_acr_fibromyalgia_widespread_pain_index_wpi_baseline_sd <dbl>,
#   american_college_of_rheumatology_acr_fibromyalgia_widespread_pain_index_wpi_post_intervention_ls_mean_se_change_from_baseline_mean <dbl>,
#   american_college_of_rheumatology_acr_fibromyalgia_widespread_pain_index_wpi_post_intervention_ls_mean_se_change_from_baseline_n <dbl>,
#   american_college_of_rheumatology_acr_fibromyalgia_widespread_pain_index_wpi_post_intervention_ls_mean_se_change_from_baseline_sd <dbl>,
#   average_of_pain_rating_index_mc_gill_pain_questionnaire_itt_sample_baseline_mean <dbl>

[[3]]
# A tibble: 451 x 10
   outcome study   arm        adverse_drug_reacti adverse_drug_react
   <chr>   <glue>  <chr>                     <dbl>               <dbl>
 1 adverse Lee 20 Placebo                      NA                  NA
 2 adverse Lee 20 Venlafaxi                   NA                  NA
 3 adverse dsrhv  Control                      NA                  NA
 4 adverse dsrhv  Amitripty                   NA                  NA
 5 adverse dsrhv  Amitripty                   NA                  NA
 6 adverse dsrhv  Acupunctu                   NA                  NA
 7 adverse Keskin Gabapenti                   NA                  NA
 8 adverse Keskin Amitripty                   NA                  NA
 9 adverse Cannon Placebo                      NA                  NA
10 adverse Cannon Clonidine                    NA                  NA
#  with 441 more rows, and 5 more variables:
#   adverse_effects_physician_rated_with_the_dotes_endpoint_percent <dbl>,
#   adverse_effects_physician_rated_with_the_dotes_endpoint_n <dbl>,
#   adverse_events_endpoint_percent <dbl>,
#   adverse_events_endpoint_n <dbl>,
#   adverse_events_3_months_acute_phase_post_intervention_percent <dbl>
…
# pipeline overview

tar_visnetwork(allow = c(w_study_label_obs, starts_with("w_obs_")))

Loading required package: dontpanic

Before we identify timepoints and other observation-level variables, we check that the data are in the correct format. The measure_desc column is the orgiinal column header from Covidence prefix for the measure. Well extract the observation-level variables (timepoint and scale) from this column.

tar_read(w_obs_wide)

# A tibble: 3,298 x 14
   outcome  study arm   measure_desc    mean     n    sd percent    se
   <chr>    <chr> <chr> <chr>          <dbl> <int> <dbl>   <dbl> <dbl>
 1 mood_de lee  plac depression_be  9.92    21  0.69    NA      NA
 2 mood_de lee  plac depression_be NA       21 NA       NA      NA
 3 mood_de lee  plac sf_36_mental_ 49.1     21 13.6     NA      NA
 4 mood_de lee  plac sf_36_mental_ 50.3     21 14.2     NA      NA
 5 mood_de lee  venl depression_be  9.72    22  0.69    NA      NA
 6 mood_de lee  venl depression_be NA       22 NA       NA      NA
 7 mood_de lee  venl sf_36_mental_ 52.9     22 19.5     NA      NA
 8 mood_de lee  venl sf_36_mental_ 55.1     22 19.6     NA      NA
 9 mood_de dsrh cont depression_bd NA        5 NA       23.8    NA
10 mood_de dsrh cont depression_bd NA        9 NA       42.9    NA
#  with 3,288 more rows, and 5 more variables: range <chr>,
#   median <dbl>, ci <chr>, intervals <chr>, iqr <chr>
…
